tests/PWR_CTRL/out.vcd
$date
	Fri Jan 24 14:30:32 2025
$end
$version
	QuestaSim Version 10.7g
$end
$timescale
	1ps
$end

$scope module testbench $end
$var parameter 32 ! ADDR_WIDTH $end
$var parameter 1540 " CFG $end
$var parameter 32 # CLK_PERIOD $end
$var parameter 32 $ DATA_WIDTH $end
$var parameter 32 % DEBUG_ADDR_EXCEPTION $end
$var parameter 32 & DEBUG_ADDR_HALT $end
$var parameter 32 ' DEBUG_IDCODE $end
$var parameter 1 ( EN_ACCEL $end
$var parameter 32 ) EN_BOOTSTRAP_CPU0 $end
$var parameter 32 * EN_BOOTSTRAP_LPCPU $end
$var parameter 32 + EN_BOOTSTRAP_LPMEM $end
$var parameter 32 , EN_BOOTSTRAP_MEM0 $end
$var parameter 1 - EN_DEBUG $end
$var parameter 32 . EN_HSP $end
$var parameter 1 / EN_LPCPU $end
$var parameter 1 0 EN_LPMEM $end
$var parameter 1 1 EN_LSPA $end
$var parameter 1 2 EN_LSPB $end
$var parameter 32 3 FAB_MAX_TRANS $end
$var parameter 32 4 GPIO_WIDTH $end
$var parameter 96 5 MMAP_ACCEL $end
$var parameter 32 6 MMAP_BOUNDRY $end
$var parameter 96 7 MMAP_DEBUG $end
$var parameter 96 8 MMAP_HSP $end
$var parameter 96 9 MMAP_LPMEM $end
$var parameter 96 : MMAP_LSPA $end
$var parameter 96 ; MMAP_LSPB $end
$var parameter 96 < MMAP_MEM $end
$var parameter 96 = MMAP_SYSCFG $end
$var parameter 32 > NO_CPUS $end
$var parameter 32 ? NO_DMAS $end
$var parameter 32 @ NO_HSPS $end
$var parameter 32 A NO_LSPAS $end
$var parameter 32 B NO_LSPA_GPIOS $end
$var parameter 32 C NO_LSPA_SPIS $end
$var parameter 32 D NO_LSPA_TIMERS $end
$var parameter 32 E NO_LSPA_UARTS $end
$var parameter 32 F NO_LSPBS $end
$var parameter 32 G NO_LSPB_GPIOS $end
$var parameter 32 H NO_LSPB_SPIS $end
$var parameter 32 I NO_LSPB_TIMERS $end
$var parameter 32 J NO_LSPB_UARTS $end
$var parameter 32 K NO_MEMS $end
$var parameter 32 L RST_BOOT_ADDR $end
$var parameter 32 M STRB_WIDTH $end
$var reg 1 N clk $end
$var reg 32 O data_in [31:0] $end
$var reg 32 P data_out [31:0] $end
$var reg 32 Q expected_data [31:0] $end
$var reg 1 R rst_n $end

$scope module axi_master $end
$var parameter 32 S AXI_ADDR_WIDTH $end
$var parameter 32 T AXI_DATA_WIDTH $end
$var parameter 32 U AXI_STRB_WIDTH $end
$var reg 32 V ar_addr [31:0] $end
$var reg 3 W ar_prot [2:0] $end
$var reg 1 X ar_ready $end
$var reg 1 Y ar_valid $end
$var reg 32 Z aw_addr [31:0] $end
$var reg 3 [ aw_prot [2:0] $end
$var reg 1 \ aw_ready $end
$var reg 1 ] aw_valid $end
$var reg 1 ^ b_ready $end
$var reg 2 _ b_resp [1:0] $end
$var reg 1 ` b_valid $end
$var reg 32 a r_data [31:0] $end
$var reg 1 b r_ready $end
$var reg 2 c r_resp [1:0] $end
$var reg 1 d r_valid $end
$var reg 32 e w_data [31:0] $end
$var reg 1 f w_ready $end
$var reg 4 g w_strb [3:0] $end
$var reg 1 h w_valid $end
$upscope $end

$scope module dut $end
$var parameter 32 i ADDR_WIDTH $end
$var parameter 1540 j CFG $end
$var parameter 32 k DATA_WIDTH $end
$var parameter 32 l DEBUG_ADDR_EXCEPTION $end
$var parameter 32 m DEBUG_ADDR_HALT $end
$var parameter 32 n DEBUG_IDCODE $end
$var parameter 1 o EN_ACCEL $end
$var parameter 32 p EN_BOOTSTRAP_CPU0 $end
$var parameter 32 q EN_BOOTSTRAP_LPCPU $end
$var parameter 32 r EN_BOOTSTRAP_LPMEM $end
$var parameter 32 s EN_BOOTSTRAP_MEM0 $end
$var parameter 1 t EN_DEBUG $end
$var parameter 32 u EN_HSP $end
$var parameter 1 v EN_LPCPU $end
$var parameter 1 w EN_LPMEM $end
$var parameter 1 x EN_LSPA $end
$var parameter 1 y EN_LSPB $end
$var parameter 32 z FAB_MAX_TRANS $end
$var parameter 32 { GPIO_WIDTH $end
$var parameter 96 | MMAP_ACCEL $end
$var parameter 32 } MMAP_BOUNDRY $end
$var parameter 96 ~ MMAP_DEBUG $end
$var parameter 96 !! MMAP_HSP $end
$var parameter 96 "! MMAP_LPMEM $end
$var parameter 96 #! MMAP_LSPA $end
$var parameter 96 $! MMAP_LSPB $end
$var parameter 96 %! MMAP_MEM $end
$var parameter 96 &! MMAP_SYSCFG $end
$var parameter 32 '! NO_CPUS $end
$var parameter 32 (! NO_DMAS $end
$var parameter 32 )! NO_HSPS $end
$var parameter 32 *! NO_LSPAS $end
$var parameter 32 +! NO_LSPA_GPIOS $end
$var parameter 32 ,! NO_LSPA_SPIS $end
$var parameter 32 -! NO_LSPA_TIMERS $end
$var parameter 32 .! NO_LSPA_UARTS $end
$var parameter 32 /! NO_LSPBS $end
$var parameter 32 0! NO_LSPB_GPIOS $end
$var parameter 32 1! NO_LSPB_SPIS $end
$var parameter 32 2! NO_LSPB_TIMERS $end
$var parameter 32 3! NO_LSPB_UARTS $end
$var parameter 32 4! NO_MEMS $end
$var parameter 32 5! RST_BOOT_ADDR $end
$var parameter 32 6! STRB_WIDTH $end
$var parameter 32 7! reg_num $end
$var reg 1 8! alert $end
$var reg 32 9! axi_read_addr [31:0] $end
$var reg 32 :! axi_read_data [31:0] $end
$var reg 1 ;! axi_read_ready $end
$var reg 1 <! axi_read_req $end
$var reg 1 =! axi_read_valid $end
$var reg 1 >! clk $end
$var reg 1 ?! compute_done $end
$var reg 32 @! counter [31:0] $end
$var reg 1 A! counter_done $end
$var reg 32 B! fetch_counter [31:0] $end
$var reg 32 C! fetched_data [31:0] $end
$var reg 1 D! fsm_ack $end
$var reg 32 E! fsm_adress [31:0] $end
$var reg 32 F! fsm_data [31:0] $end
$var reg 1 G! fsm_req $end
$var reg 1 H! fsm_valid $end
$var reg 1 I! maestro_ack $end
$var reg 32 J! maestro_address [31:0] $end
$var reg 32 K! maestro_data [31:0] $end
$var reg 1 L! maestro_req $end
$var reg 1 M! maestro_valid $end
$var reg 4 N! pwr_counter [3:0] $end
$var reg 1 O! pwr_ctrl_en $end
$var reg 1 P! pwr_launch $end
$var reg 8 Q! pwr_transition [7:0] $end
$var reg 11 R! read_addr [10:0] $end
$var reg 1 S! read_regs $end
$var reg 1 T! ready $end
$var reg 1 U! rst_n $end
$var reg 8 V! transition_number [7:0] $end
$var reg 11 W! write_addr [10:0] $end
$var reg 32 X! write_data [31:0] $end
$var reg 1 Y! write_regs $end
$var integer 32 Z! compute_read $end
$var integer 32 [! fetch_state $end
$var integer 32 \! old_state $end
$var integer 32 ]! state $end

$scope module read_port $end
$var wire 1 ^! adress_i [31] $end
$var wire 1 _! adress_i [30] $end
$var wire 1 `! adress_i [29] $end
$var wire 1 a! adress_i [28] $end
$var wire 1 b! adress_i [27] $end
$var wire 1 c! adress_i [26] $end
$var wire 1 d! adress_i [25] $end
$var wire 1 e! adress_i [24] $end
$var wire 1 f! adress_i [23] $end
$var wire 1 g! adress_i [22] $end
$var wire 1 h! adress_i [21] $end
$var wire 1 i! adress_i [20] $end
$var wire 1 j! adress_i [19] $end
$var wire 1 k! adress_i [18] $end
$var wire 1 l! adress_i [17] $end
$var wire 1 m! adress_i [16] $end
$var wire 1 n! adress_i [15] $end
$var wire 1 o! adress_i [14] $end
$var wire 1 p! adress_i [13] $end
$var wire 1 q! adress_i [12] $end
$var wire 1 r! adress_i [11] $end
$var wire 1 s! adress_i [10] $end
$var wire 1 t! adress_i [9] $end
$var wire 1 u! adress_i [8] $end
$var wire 1 v! adress_i [7] $end
$var wire 1 w! adress_i [6] $end
$var wire 1 x! adress_i [5] $end
$var wire 1 y! adress_i [4] $end
$var wire 1 z! adress_i [3] $end
$var wire 1 {! adress_i [2] $end
$var wire 1 |! adress_i [1] $end
$var wire 1 }! adress_i [0] $end
$var wire 1 ~! req_i $end
$var reg 32 !" data_o [31:0] $end
$var reg 1 "" ready_o $end
$var reg 1 #" valid_o $end
$upscope $end

$scope module write_port $end
$var wire 1 $" fsm_adress_i [31] $end
$var wire 1 %" fsm_adress_i [30] $end
$var wire 1 &" fsm_adress_i [29] $end
$var wire 1 '" fsm_adress_i [28] $end
$var wire 1 (" fsm_adress_i [27] $end
$var wire 1 )" fsm_adress_i [26] $end
$var wire 1 *" fsm_adress_i [25] $end
$var wire 1 +" fsm_adress_i [24] $end
$var wire 1 ," fsm_adress_i [23] $end
$var wire 1 -" fsm_adress_i [22] $end
$var wire 1 ." fsm_adress_i [21] $end
$var wire 1 /" fsm_adress_i [20] $end
$var wire 1 0" fsm_adress_i [19] $end
$var wire 1 1" fsm_adress_i [18] $end
$var wire 1 2" fsm_adress_i [17] $end
$var wire 1 3" fsm_adress_i [16] $end
$var wire 1 4" fsm_adress_i [15] $end
$var wire 1 5" fsm_adress_i [14] $end
$var wire 1 6" fsm_adress_i [13] $end
$var wire 1 7" fsm_adress_i [12] $end
$var wire 1 8" fsm_adress_i [11] $end
$var wire 1 9" fsm_adress_i [10] $end
$var wire 1 :" fsm_adress_i [9] $end
$var wire 1 ;" fsm_adress_i [8] $end
$var wire 1 <" fsm_adress_i [7] $end
$var wire 1 =" fsm_adress_i [6] $end
$var wire 1 >" fsm_adress_i [5] $end
$var wire 1 ?" fsm_adress_i [4] $end
$var wire 1 @" fsm_adress_i [3] $end
$var wire 1 A" fsm_adress_i [2] $end
$var wire 1 B" fsm_adress_i [1] $end
$var wire 1 C" fsm_adress_i [0] $end
$var wire 1 D" fsm_data_i [31] $end
$var wire 1 E" fsm_data_i [30] $end
$var wire 1 F" fsm_data_i [29] $end
$var wire 1 G" fsm_data_i [28] $end
$var wire 1 H" fsm_data_i [27] $end
$var wire 1 I" fsm_data_i [26] $end
$var wire 1 J" fsm_data_i [25] $end
$var wire 1 K" fsm_data_i [24] $end
$var wire 1 L" fsm_data_i [23] $end
$var wire 1 M" fsm_data_i [22] $end
$var wire 1 N" fsm_data_i [21] $end
$var wire 1 O" fsm_data_i [20] $end
$var wire 1 P" fsm_data_i [19] $end
$var wire 1 Q" fsm_data_i [18] $end
$var wire 1 R" fsm_data_i [17] $end
$var wire 1 S" fsm_data_i [16] $end
$var wire 1 T" fsm_data_i [15] $end
$var wire 1 U" fsm_data_i [14] $end
$var wire 1 V" fsm_data_i [13] $end
$var wire 1 W" fsm_data_i [12] $end
$var wire 1 X" fsm_data_i [11] $end
$var wire 1 Y" fsm_data_i [10] $end
$var wire 1 Z" fsm_data_i [9] $end
$var wire 1 [" fsm_data_i [8] $end
$var wire 1 \" fsm_data_i [7] $end
$var wire 1 ]" fsm_data_i [6] $end
$var wire 1 ^" fsm_data_i [5] $end
$var wire 1 _" fsm_data_i [4] $end
$var wire 1 `" fsm_data_i [3] $end
$var wire 1 a" fsm_data_i [2] $end
$var wire 1 b" fsm_data_i [1] $end
$var wire 1 c" fsm_data_i [0] $end
$var wire 1 d" fsm_req_i $end
$var wire 1 e" maestro_adress_i [31] $end
$var wire 1 f" maestro_adress_i [30] $end
$var wire 1 g" maestro_adress_i [29] $end
$var wire 1 h" maestro_adress_i [28] $end
$var wire 1 i" maestro_adress_i [27] $end
$var wire 1 j" maestro_adress_i [26] $end
$var wire 1 k" maestro_adress_i [25] $end
$var wire 1 l" maestro_adress_i [24] $end
$var wire 1 m" maestro_adress_i [23] $end
$var wire 1 n" maestro_adress_i [22] $end
$var wire 1 o" maestro_adress_i [21] $end
$var wire 1 p" maestro_adress_i [20] $end
$var wire 1 q" maestro_adress_i [19] $end
$var wire 1 r" maestro_adress_i [18] $end
$var wire 1 s" maestro_adress_i [17] $end
$var wire 1 t" maestro_adress_i [16] $end
$var wire 1 u" maestro_adress_i [15] $end
$var wire 1 v" maestro_adress_i [14] $end
$var wire 1 w" maestro_adress_i [13] $end
$var wire 1 x" maestro_adress_i [12] $end
$var wire 1 y" maestro_adress_i [11] $end
$var wire 1 z" maestro_adress_i [10] $end
$var wire 1 {" maestro_adress_i [9] $end
$var wire 1 |" maestro_adress_i [8] $end
$var wire 1 }" maestro_adress_i [7] $end
$var wire 1 ~" maestro_adress_i [6] $end
$var wire 1 !# maestro_adress_i [5] $end
$var wire 1 "# maestro_adress_i [4] $end
$var wire 1 ## maestro_adress_i [3] $end
$var wire 1 $# maestro_adress_i [2] $end
$var wire 1 %# maestro_adress_i [1] $end
$var wire 1 &# maestro_adress_i [0] $end
$var wire 1 '# maestro_data_i [31] $end
$var wire 1 (# maestro_data_i [30] $end
$var wire 1 )# maestro_data_i [29] $end
$var wire 1 *# maestro_data_i [28] $end
$var wire 1 +# maestro_data_i [27] $end
$var wire 1 ,# maestro_data_i [26] $end
$var wire 1 -# maestro_data_i [25] $end
$var wire 1 .# maestro_data_i [24] $end
$var wire 1 /# maestro_data_i [23] $end
$var wire 1 0# maestro_data_i [22] $end
$var wire 1 1# maestro_data_i [21] $end
$var wire 1 2# maestro_data_i [20] $end
$var wire 1 3# maestro_data_i [19] $end
$var wire 1 4# maestro_data_i [18] $end
$var wire 1 5# maestro_data_i [17] $end
$var wire 1 6# maestro_data_i [16] $end
$var wire 1 7# maestro_data_i [15] $end
$var wire 1 8# maestro_data_i [14] $end
$var wire 1 9# maestro_data_i [13] $end
$var wire 1 :# maestro_data_i [12] $end
$var wire 1 ;# maestro_data_i [11] $end
$var wire 1 <# maestro_data_i [10] $end
$var wire 1 =# maestro_data_i [9] $end
$var wire 1 ># maestro_data_i [8] $end
$var wire 1 ?# maestro_data_i [7] $end
$var wire 1 @# maestro_data_i [6] $end
$var wire 1 A# maestro_data_i [5] $end
$var wire 1 B# maestro_data_i [4] $end
$var wire 1 C# maestro_data_i [3] $end
$var wire 1 D# maestro_data_i [2] $end
$var wire 1 E# maestro_data_i [1] $end
$var wire 1 F# maestro_data_i [0] $end
$var wire 1 G# maestro_req_i $end
$var reg 1 H# ack $end
$var reg 1 I# arbiter $end
$var reg 1 J# fsm_ack_o $end
$var reg 1 K# fsm_valid_o $end
$var reg 1 L# maestro_ack_o $end
$var reg 1 M# maestro_valid_o $end
$var reg 1 N# req $end
$var reg 1 O# valid $end
$upscope $end
$upscope $end

$scope module seq $end
$var reg 1 P# clk $end
$var reg 1 Q# rst $end
$upscope $end

$scope task axi_read $end
$var reg 32 R# address [31:0] $end
$var reg 32 S# data [31:0] $end
$var integer 32 T# port_index $end
$upscope $end

$scope task axi_write $end
$var reg 32 U# address [31:0] $end
$var reg 32 V# data [31:0] $end
$var integer 32 W# port_index $end
$upscope $end

$scope task reset $end
$upscope $end

$scope begin axi_slave $end
$upscope $end

$scope module axi_slave[0] $end
$var parameter 32 X# AXI_ADDR_WIDTH $end
$var parameter 32 Y# AXI_DATA_WIDTH $end
$var parameter 32 Z# AXI_STRB_WIDTH $end
$var reg 32 [# ar_addr [31:0] $end
$var reg 3 \# ar_prot [2:0] $end
$var reg 1 ]# ar_ready $end
$var reg 1 ^# ar_valid $end
$var reg 32 _# aw_addr [31:0] $end
$var reg 3 `# aw_prot [2:0] $end
$var reg 1 a# aw_ready $end
$var reg 1 b# aw_valid $end
$var reg 1 c# b_ready $end
$var reg 2 d# b_resp [1:0] $end
$var reg 1 e# b_valid $end
$var reg 32 f# r_data [31:0] $end
$var reg 1 g# r_ready $end
$var reg 2 h# r_resp [1:0] $end
$var reg 1 i# r_valid $end
$var reg 32 j# w_data [31:0] $end
$var reg 1 k# w_ready $end
$var reg 4 l# w_strb [3:0] $end
$var reg 1 m# w_valid $end
$upscope $end

$scope module axi_slave[1] $end
$var parameter 32 n# AXI_ADDR_WIDTH $end
$var parameter 32 o# AXI_DATA_WIDTH $end
$var parameter 32 p# AXI_STRB_WIDTH $end
$var reg 32 q# ar_addr [31:0] $end
$var reg 3 r# ar_prot [2:0] $end
$var reg 1 s# ar_ready $end
$var reg 1 t# ar_valid $end
$var reg 32 u# aw_addr [31:0] $end
$var reg 3 v# aw_prot [2:0] $end
$var reg 1 w# aw_ready $end
$var reg 1 x# aw_valid $end
$var reg 1 y# b_ready $end
$var reg 2 z# b_resp [1:0] $end
$var reg 1 {# b_valid $end
$var reg 32 |# r_data [31:0] $end
$var reg 1 }# r_ready $end
$var reg 2 ~# r_resp [1:0] $end
$var reg 1 !$ r_valid $end
$var reg 32 "$ w_data [31:0] $end
$var reg 1 #$ w_ready $end
$var reg 4 $$ w_strb [3:0] $end
$var reg 1 %$ w_valid $end
$upscope $end
$upscope $end

$scope begin axi_pkg $end
$var parameter 3 &$ ATOP_ADD $end
$var parameter 6 '$ ATOP_ATOMICCMP $end
$var parameter 2 ($ ATOP_ATOMICLOAD $end
$var parameter 2 )$ ATOP_ATOMICSTORE $end
$var parameter 6 *$ ATOP_ATOMICSWAP $end
$var parameter 1 +$ ATOP_BIG_END $end
$var parameter 3 ,$ ATOP_CLR $end
$var parameter 3 -$ ATOP_EOR $end
$var parameter 1 .$ ATOP_LITTLE_END $end
$var parameter 2 /$ ATOP_NONE $end
$var parameter 32 0$ ATOP_R_RESP $end
$var parameter 3 1$ ATOP_SET $end
$var parameter 3 2$ ATOP_SMAX $end
$var parameter 3 3$ ATOP_SMIN $end
$var parameter 3 4$ ATOP_UMAX $end
$var parameter 3 5$ ATOP_UMIN $end
$var parameter 2 6$ BURST_FIXED $end
$var parameter 2 7$ BURST_INCR $end
$var parameter 2 8$ BURST_WRAP $end
$var parameter 4 9$ CACHE_BUFFERABLE $end
$var parameter 4 :$ CACHE_MODIFIABLE $end
$var parameter 4 ;$ CACHE_RD_ALLOC $end
$var parameter 4 <$ CACHE_WR_ALLOC $end
$var parameter 10 =$ DemuxAr $end
$var parameter 10 >$ DemuxAw $end
$var parameter 10 ?$ DemuxB $end
$var parameter 10 @$ DemuxR $end
$var parameter 10 A$ DemuxW $end
$var parameter 10 B$ MuxAr $end
$var parameter 10 C$ MuxAw $end
$var parameter 10 D$ MuxB $end
$var parameter 10 E$ MuxR $end
$var parameter 10 F$ MuxW $end
$var parameter 2 G$ RESP_DECERR $end
$var parameter 2 H$ RESP_EXOKAY $end
$var parameter 2 I$ RESP_OKAY $end
$var parameter 2 J$ RESP_SLVERR $end

$scope function aligned_addr $end
$upscope $end

$scope function beat_addr $end
$upscope $end

$scope function beat_lower_byte $end
$upscope $end

$scope function beat_upper_byte $end
$upscope $end

$scope function bufferable $end
$upscope $end

$scope function get_arcache $end
$upscope $end

$scope function get_awcache $end
$upscope $end

$scope function modifiable $end
$upscope $end

$scope function num_bytes $end
$upscope $end

$scope function resp_precedence $end
$upscope $end

$scope function wrap_boundary $end
$upscope $end
$upscope $end

$scope begin adam_cfg_pkg $end
$var parameter 224 K$ BHV_CFG $end
$var parameter 1540 L$ CFG $end
$upscope $end
$enddefinitions $end
#0
$dumpvars
0d"
0c"
0b"
0a"
0`"
0_"
0^"
0]"
0\"
0["
0Z"
0Y"
0X"
0W"
0V"
0U"
0T"
0S"
0R"
0Q"
0P"
0O"
0N"
0M"
0L"
0K"
0J"
0I"
0H"
0G"
0F"
0E"
0D"
0C"
0B"
0A"
0@"
0?"
0>"
0="
0<"
0;"
0:"
09"
08"
07"
06"
05"
04"
03"
02"
01"
00"
0/"
0."
0-"
0,"
0+"
0*"
0)"
0("
0'"
0&"
0%"
0$"
0G#
0F#
0E#
0D#
0C#
0B#
0A#
0@#
0?#
0>#
0=#
0<#
0;#
0:#
09#
08#
07#
06#
05#
04#
03#
02#
01#
00#
0/#
0.#
0-#
0,#
0+#
0*#
0)#
0(#
0'#
0&#
0%#
0$#
0##
0"#
0!#
0~"
0}"
0|"
0{"
0z"
0y"
0x"
0w"
0v"
0u"
0t"
0s"
0r"
0q"
0p"
0o"
0n"
0m"
0l"
0k"
0j"
0i"
0h"
0g"
0f"
0e"
x~!
x}!
x|!
x{!
xz!
xy!
xx!
xw!
xv!
xu!
xt!
xs!
xr!
xq!
xp!
xo!
xn!
xm!
xl!
xk!
xj!
xi!
xh!
xg!
xf!
xe!
xd!
xc!
xb!
xa!
x`!
x_!
x^!
b100000 !
0"
b1010 #
b100000 $
b10000000100000001000 %
b10000000100000000000 &
b100100100101010001000111000011 '
1(
b1 )
b0 *
b0 +
b1 ,
1-
b0 .
1/
10
11
02
b111 3
b1000 4
05
b10000000000000000000 6
07
08
09
0:
0;
0<
0=
b1 >
b1 ?
b0 @
b100 A
b1 B
b1 C
b1 D
b1 E
b0 F
b0 G
b0 H
b0 I
b0 J
b10 K
b1000000000000000000000000 L
b100 M
1N
bx O
bx P
bx Q
0R
bx R#
bx S#
b0 T#
bx U#
bx V#
b0 W#
b0 &$
b110001 '$
b10 ($
b1 )$
b110000 *$
1+$
b1 ,$
b10 -$
0.$
b0 /$
b101 0$
b11 1$
b100 2$
b101 3$
b110 4$
b111 5$
b0 6$
b1 7$
b10 8$
b1 9$
b10 :$
b100 ;$
b1000 <$
b1000000 =$
b1000000000 >$
b10000000 ?$
b100000 @$
b100000000 A$
b10 B$
b10000 C$
b100 D$
b1 E$
b1000 F$
b11 G$
b1 H$
b0 I$
b10 J$
0K$
0L$
b100000 S
b100000 T
b100 U
bx V
bx W
xX
xY
bx Z
bx [
x\
x]
x^
bx _
x`
bx a
xb
bx c
xd
bx e
xf
bx g
xh
b100000 i
0j
b100000 k
b10000000100000001000 l
b10000000100000000000 m
b100100100101010001000111000011 n
1o
b1 p
b0 q
b0 r
b1 s
1t
b0 u
1v
1w
1x
0y
b111 z
b1000 {
0|
b10000000000000000000 }
0~
0!!
0"!
0#!
0$!
0%!
0&!
b1 '!
b1 (!
b0 )!
b100 *!
b1 +!
b1 ,!
b1 -!
b1 .!
b0 /!
b0 0!
b0 1!
b0 2!
b0 3!
b10 4!
b1000000000000000000000000 5!
b100 6!
b10000 7!
x8!
bx 9!
b0 :!
x;!
x<!
0=!
1>!
0?!
b0 @!
1A!
b0 B!
bx C!
xD!
b0 E!
b0 F!
0G!
xH!
xI!
b0 J!
b0 K!
0L!
xM!
b0 N!
0O!
xP!
b0 Q!
bx R!
0S!
1T!
0U!
b0 V!
bx W!
bx X!
0Y!
b0 Z!
b0 [!
b0 \!
b0 ]!
1P#
1Q#
b100000 X#
b100000 Y#
b100 Z#
bx [#
bx \#
0]#
x^#
bx _#
bx `#
0a#
xb#
xc#
bx d#
0e#
bx f#
xg#
bx h#
0i#
bx j#
0k#
bx l#
xm#
b100000 n#
b100000 o#
b100 p#
bx q#
bx r#
xs#
xt#
bx u#
bx v#
xw#
xx#
xy#
bx z#
x{#
bx |#
x}#
bx ~#
x!$
bx "$
x#$
bx $$
x%$
b0 !"
x""
0#"
xH#
xI#
xJ#
xK#
xL#
xM#
0N#
0O#
$end
#5
0N
0P#
0>!
#10
1N
1P#
1>!
1X
0d
1\
1f
0`
1""
1;!
#15
0N
0P#
0>!
#20
1N
1P#
1>!
#25
0N
0P#
0>!
#30
1N
1P#
1>!
#35
0N
0P#
0>!
#40
1N
1P#
1>!
#45
0N
0P#
0>!
#50
1N
1P#
1>!
#55
0N
0P#
0>!
#60
1N
1P#
1>!
#65
0N
0P#
0>!
#70
1N
1P#
1>!
#75
0N
0P#
0>!
#80
1N
1P#
1>!
#85
0N
0P#
0>!
#90
1N
1P#
1>!
#95
0N
0P#
0>!
#100
1N
1P#
1>!
#105
0N
0P#
0>!
#110
1N
1P#
1>!
#115
0N
0P#
0>!
#120
1N
1P#
1>!
#125
0N
0P#
0>!
#130
1N
1P#
1>!
#135
0N
0P#
0>!
#140
1N
1P#
1>!
#145
0N
0P#
0>!
#150
1N
1P#
1>!
#155
0N
0P#
0>!
#160
1N
1P#
1>!
#165
0N
0P#
0>!
#170
1N
1P#
1>!
#175
0N
0P#
0>!
#180
1N
1P#
1>!
#185
0N
0P#
0>!
#190
1N
1P#
1>!
#195
0N
0P#
0>!
#200
1N
1P#
1>!
#205
0N
0P#
0>!
#210
1N
1P#
1>!
#215
0N
0P#
0>!
#220
1N
1P#
1>!
#225
0N
0P#
0>!
#230
1N
1P#
1>!
#235
0N
0P#
0>!
#240
1N
1P#
1>!
#245
0N
0P#
0>!
#250
1N
1P#
1>!
#255
0N
0P#
0>!
#260
1N
1P#
1>!
#265
0N
0P#
0>!
#270
1N
1P#
1>!
#275
0N
0P#
0>!
#280
1N
1P#
1>!
#285
0N
0P#
0>!
#290
1N
1P#
1>!
#295
0N
0P#
0>!
#300
1R
1N
1P#
1>!
0Q#
1U!
0<!
0Y
0]
0h
0H#
0L#
0J#
0~!
0D!
0I!
#305
0N
0P#
0>!
#310
1N
1P#
1>!
#315
0N
0P#
0>!
#320
1N
1P#
1>!
#325
0N
0P#
0>!
#330
1N
1P#
1>!
#335
0N
0P#
0>!
#340
1N
1P#
1>!
#345
0N
0P#
0>!
#350
1N
1P#
1>!
#355
0N
0P#
0>!
#360
1N
1P#
1>!
#365
0N
0P#
0>!
#370
1N
1P#
1>!
#375
0N
0P#
0>!
#380
1N
1P#
1>!
#385
0N
0P#
0>!
#390
1N
1P#
1>!
#395
0N
0P#
0>!
#400
1N
1P#
1>!
#405
0N
0P#
0>!
#410
1N
1P#
1>!
#415
0N
0P#
0>!
#420
1N
1P#
1>!
#425
0N
0P#
0>!
#430
1N
1P#
1>!
#435
0N
0P#
0>!
#440
1N
1P#
1>!
#445
0N
0P#
0>!
#450
1N
1P#
1>!
#455
0N
0P#
0>!
#460
1N
1P#
1>!
#465
0N
0P#
0>!
#470
1N
1P#
1>!
#475
0N
0P#
0>!
#480
1N
1P#
1>!
#485
0N
0P#
0>!
#490
1N
1P#
1>!
#495
0N
0P#
0>!
#500
1N
1P#
1>!
#505
0N
0P#
0>!
#510
1N
1P#
1>!
#515
0N
0P#
0>!
#520
1N
1P#
1>!
#525
0N
0P#
0>!
#530
1N
1P#
1>!
#535
0N
0P#
0>!
#540
1N
1P#
1>!
#545
0N
0P#
0>!
#550
1N
1P#
1>!
#555
0N
0P#
0>!
#560
1N
1P#
1>!
#565
0N
0P#
0>!
#570
1N
1P#
1>!
#575
0N
0P#
0>!
#580
1N
1P#
1>!
#585
0N
0P#
0>!
#590
1N
1P#
1>!
#595
0N
0P#
0>!
#600
b101000 U#
b111110100 V#
1c#
b101000 _#
b111110100 j#
1b#
1m#
1N
1P#
1>!
1Y!
1a#
1k#
b1010 W!
b111110100 X!
0T!
#605
0N
0P#
0>!
#610
0b#
0m#
1N
1P#
1>!
0a#
0k#
b0 d#
1e#
0Y!
1T!
0A!
#615
0N
0P#
0>!
#620
0c#
1N
1P#
1>!
0e#
#625
0N
0P#
0>!
#630
b10010001101000101011001111000 O
b0 U#
b10010001101000101011001111000 V#
1c#
b0 _#
b10010001101000101011001111000 j#
1b#
1m#
1N
1P#
1>!
1Y!
1a#
1k#
b0 W!
b10010001101000101011001111000 X!
0T!
#635
0N
0P#
0>!
#640
0b#
0m#
1N
1P#
1>!
0a#
0k#
1P!
1e#
0Y!
1T!
#645
0N
0P#
0>!
#650
0c#
1N
1P#
1>!
0e#
b1 ]!
#655
0N
0P#
0>!
#660
1N
1P#
1>!
0P!
b1 @!
b1 \!
1O!
#665
0N
0P#
0>!
#670
1N
1P#
1>!
b10 @!
b1 V!
b1000000000000000 J!
b11 K!
1L!
1F#
1E#
1u"
1G#
1N#
#675
0N
0P#
0>!
#680
1N
1P#
1>!
b11 @!
1I#
b1000000000000000 Z
b11 e
1]
1^
1H#
1L#
1I!
#685
0N
0P#
0>!
#690
1N
1P#
1>!
1`
b1 N!
0L!
b100 @!
0]
0H#
0L#
0G#
0N#
0I!
#695
0N
0P#
0>!
#700
1N
1P#
1>!
0`
b101 @!
b1000000000000001 J!
1L!
0^
1&#
1G#
1N#
#705
0N
0P#
0>!
#710
1N
1P#
1>!
b110 @!
b1000000000000001 Z
1]
1^
1H#
1L#
1I!
#715
0N
0P#
0>!
#720
1N
1P#
1>!
1`
b10 N!
0L!
b111 @!
0]
0H#
0L#
0G#
0N#
0I!
#725
0N
0P#
0>!
#730
1N
1P#
1>!
0`
b1000 @!
0O!
b1000000000000010 J!
1L!
0^
0&#
1%#
1G#
1N#
#735
0N
0P#
0>!
#740
1N
1P#
1>!
0L!
b0 N!
b1001 @!
b1000000000000010 Z
1]
1^
1H#
1L#
0G#
0N#
1I!
#745
0N
0P#
0>!
#750
1N
1P#
1>!
1`
b1010 @!
0]
0H#
0L#
0I!
#755
0N
0P#
0>!
#760
1N
1P#
1>!
0`
b1011 @!
0^
#765
0N
0P#
0>!
#770
1N
1P#
1>!
b1100 @!
#775
0N
0P#
0>!
#780
1N
1P#
1>!
b1101 @!
#785
0N
0P#
0>!
#790
1N
1P#
1>!
b1110 @!
#795
0N
0P#
0>!
#800
1N
1P#
1>!
b1111 @!
#805
0N
0P#
0>!
#810
1N
1P#
1>!
b10000 @!
#815
0N
0P#
0>!
#820
1N
1P#
1>!
b10001 @!
#825
0N
0P#
0>!
#830
1N
1P#
1>!
b10010 @!
#835
0N
0P#
0>!
#840
1N
1P#
1>!
b10011 @!
#845
0N
0P#
0>!
#850
1N
1P#
1>!
b10100 @!
#855
0N
0P#
0>!
#860
1N
1P#
1>!
b10101 @!
#865
0N
0P#
0>!
#870
1N
1P#
1>!
b10110 @!
#875
0N
0P#
0>!
#880
1N
1P#
1>!
b10111 @!
#885
0N
0P#
0>!
#890
1N
1P#
1>!
b11000 @!
#895
0N
0P#
0>!
#900
1N
1P#
1>!
b11001 @!
#905
0N
0P#
0>!
#910
1N
1P#
1>!
b11010 @!
#915
0N
0P#
0>!
#920
1N
1P#
1>!
b11011 @!
#925
0N
0P#
0>!
#930
1N
1P#
1>!
b11100 @!
#935
0N
0P#
0>!
#940
1N
1P#
1>!
b11101 @!
#945
0N
0P#
0>!
