tests/PWR_CTRL/out.vcd
$date
	Tue Jan 21 13:14:05 2025
$end
$version
	QuestaSim Version 10.7g
$end
$timescale
	1ns
$end

$scope module testbench $end
$var parameter 32 ! CLK_PERIOD $end
$var reg 1 " clk $end
$var reg 32 # data_in [31:0] $end
$var reg 32 $ data_out [31:0] $end
$var reg 32 % expected_data [31:0] $end
$var reg 1 & rst_n $end

$scope module axi_master $end
$var parameter 32 ' AXI_ADDR_WIDTH $end
$var parameter 32 ( AXI_DATA_WIDTH $end
$var parameter 32 ) AXI_STRB_WIDTH $end
$var reg 32 * ar_addr [31:0] $end
$var reg 3 + ar_prot [2:0] $end
$var reg 1 , ar_ready $end
$var reg 1 - ar_valid $end
$var reg 32 . aw_addr [31:0] $end
$var reg 3 / aw_prot [2:0] $end
$var reg 1 0 aw_ready $end
$var reg 1 1 aw_valid $end
$var reg 1 2 b_ready $end
$var reg 2 3 b_resp [1:0] $end
$var reg 1 4 b_valid $end
$var reg 32 5 r_data [31:0] $end
$var reg 1 6 r_ready $end
$var reg 2 7 r_resp [1:0] $end
$var reg 1 8 r_valid $end
$var reg 32 9 w_data [31:0] $end
$var reg 1 : w_ready $end
$var reg 4 ; w_strb [3:0] $end
$var reg 1 < w_valid $end
$upscope $end

$scope module dut $end
$var parameter 32 = reg_num $end
$var reg 1 > alert $end
$var reg 32 ? axi_read_addr [31:0] $end
$var reg 32 @ axi_read_data [31:0] $end
$var reg 1 A axi_read_ready $end
$var reg 1 B axi_read_req $end
$var reg 1 C axi_read_valid $end
$var reg 1 D clk $end
$var reg 1 E compute_done $end
$var reg 32 F counter [31:0] $end
$var reg 1 G counter_done $end
$var reg 32 H fetch_counter [31:0] $end
$var reg 32 I fetched_data [31:0] $end
$var reg 1 J fsm_ack $end
$var reg 32 K fsm_adress [31:0] $end
$var reg 32 L fsm_data [31:0] $end
$var reg 1 M fsm_req $end
$var reg 1 N fsm_valid $end
$var reg 1 O maestro_ack $end
$var reg 32 P maestro_address [31:0] $end
$var reg 32 Q maestro_data [31:0] $end
$var reg 1 R maestro_req $end
$var reg 1 S maestro_valid $end
$var reg 4 T pwr_counter [3:0] $end
$var reg 1 U pwr_ctrl_en $end
$var reg 1 V pwr_launch $end
$var reg 8 W pwr_transition [7:0] $end
$var reg 11 X read_addr [10:0] $end
$var reg 1 Y read_regs $end
$var reg 1 Z ready $end
$var reg 1 [ rst_n $end
$var reg 8 \ transition_number [7:0] $end
$var reg 11 ] write_addr [10:0] $end
$var reg 32 ^ write_data [31:0] $end
$var reg 1 _ write_regs $end
$var integer 32 ` compute_read $end
$var integer 32 a fetch_state $end
$var integer 32 b old_state $end
$var integer 32 c state $end

$scope module read_port $end
$var wire 1 d adress_i [31] $end
$var wire 1 e adress_i [30] $end
$var wire 1 f adress_i [29] $end
$var wire 1 g adress_i [28] $end
$var wire 1 h adress_i [27] $end
$var wire 1 i adress_i [26] $end
$var wire 1 j adress_i [25] $end
$var wire 1 k adress_i [24] $end
$var wire 1 l adress_i [23] $end
$var wire 1 m adress_i [22] $end
$var wire 1 n adress_i [21] $end
$var wire 1 o adress_i [20] $end
$var wire 1 p adress_i [19] $end
$var wire 1 q adress_i [18] $end
$var wire 1 r adress_i [17] $end
$var wire 1 s adress_i [16] $end
$var wire 1 t adress_i [15] $end
$var wire 1 u adress_i [14] $end
$var wire 1 v adress_i [13] $end
$var wire 1 w adress_i [12] $end
$var wire 1 x adress_i [11] $end
$var wire 1 y adress_i [10] $end
$var wire 1 z adress_i [9] $end
$var wire 1 { adress_i [8] $end
$var wire 1 | adress_i [7] $end
$var wire 1 } adress_i [6] $end
$var wire 1 ~ adress_i [5] $end
$var wire 1 !! adress_i [4] $end
$var wire 1 "! adress_i [3] $end
$var wire 1 #! adress_i [2] $end
$var wire 1 $! adress_i [1] $end
$var wire 1 %! adress_i [0] $end
$var wire 1 &! req_i $end
$var reg 32 '! data_o [31:0] $end
$var reg 1 (! ready_o $end
$var reg 1 )! valid_o $end
$upscope $end

$scope module write_port $end
$var wire 1 *! fsm_adress_i [31] $end
$var wire 1 +! fsm_adress_i [30] $end
$var wire 1 ,! fsm_adress_i [29] $end
$var wire 1 -! fsm_adress_i [28] $end
$var wire 1 .! fsm_adress_i [27] $end
$var wire 1 /! fsm_adress_i [26] $end
$var wire 1 0! fsm_adress_i [25] $end
$var wire 1 1! fsm_adress_i [24] $end
$var wire 1 2! fsm_adress_i [23] $end
$var wire 1 3! fsm_adress_i [22] $end
$var wire 1 4! fsm_adress_i [21] $end
$var wire 1 5! fsm_adress_i [20] $end
$var wire 1 6! fsm_adress_i [19] $end
$var wire 1 7! fsm_adress_i [18] $end
$var wire 1 8! fsm_adress_i [17] $end
$var wire 1 9! fsm_adress_i [16] $end
$var wire 1 :! fsm_adress_i [15] $end
$var wire 1 ;! fsm_adress_i [14] $end
$var wire 1 <! fsm_adress_i [13] $end
$var wire 1 =! fsm_adress_i [12] $end
$var wire 1 >! fsm_adress_i [11] $end
$var wire 1 ?! fsm_adress_i [10] $end
$var wire 1 @! fsm_adress_i [9] $end
$var wire 1 A! fsm_adress_i [8] $end
$var wire 1 B! fsm_adress_i [7] $end
$var wire 1 C! fsm_adress_i [6] $end
$var wire 1 D! fsm_adress_i [5] $end
$var wire 1 E! fsm_adress_i [4] $end
$var wire 1 F! fsm_adress_i [3] $end
$var wire 1 G! fsm_adress_i [2] $end
$var wire 1 H! fsm_adress_i [1] $end
$var wire 1 I! fsm_adress_i [0] $end
$var wire 1 J! fsm_data_i [31] $end
$var wire 1 K! fsm_data_i [30] $end
$var wire 1 L! fsm_data_i [29] $end
$var wire 1 M! fsm_data_i [28] $end
$var wire 1 N! fsm_data_i [27] $end
$var wire 1 O! fsm_data_i [26] $end
$var wire 1 P! fsm_data_i [25] $end
$var wire 1 Q! fsm_data_i [24] $end
$var wire 1 R! fsm_data_i [23] $end
$var wire 1 S! fsm_data_i [22] $end
$var wire 1 T! fsm_data_i [21] $end
$var wire 1 U! fsm_data_i [20] $end
$var wire 1 V! fsm_data_i [19] $end
$var wire 1 W! fsm_data_i [18] $end
$var wire 1 X! fsm_data_i [17] $end
$var wire 1 Y! fsm_data_i [16] $end
$var wire 1 Z! fsm_data_i [15] $end
$var wire 1 [! fsm_data_i [14] $end
$var wire 1 \! fsm_data_i [13] $end
$var wire 1 ]! fsm_data_i [12] $end
$var wire 1 ^! fsm_data_i [11] $end
$var wire 1 _! fsm_data_i [10] $end
$var wire 1 `! fsm_data_i [9] $end
$var wire 1 a! fsm_data_i [8] $end
$var wire 1 b! fsm_data_i [7] $end
$var wire 1 c! fsm_data_i [6] $end
$var wire 1 d! fsm_data_i [5] $end
$var wire 1 e! fsm_data_i [4] $end
$var wire 1 f! fsm_data_i [3] $end
$var wire 1 g! fsm_data_i [2] $end
$var wire 1 h! fsm_data_i [1] $end
$var wire 1 i! fsm_data_i [0] $end
$var wire 1 j! fsm_req_i $end
$var wire 1 k! maestro_adress_i [31] $end
$var wire 1 l! maestro_adress_i [30] $end
$var wire 1 m! maestro_adress_i [29] $end
$var wire 1 n! maestro_adress_i [28] $end
$var wire 1 o! maestro_adress_i [27] $end
$var wire 1 p! maestro_adress_i [26] $end
$var wire 1 q! maestro_adress_i [25] $end
$var wire 1 r! maestro_adress_i [24] $end
$var wire 1 s! maestro_adress_i [23] $end
$var wire 1 t! maestro_adress_i [22] $end
$var wire 1 u! maestro_adress_i [21] $end
$var wire 1 v! maestro_adress_i [20] $end
$var wire 1 w! maestro_adress_i [19] $end
$var wire 1 x! maestro_adress_i [18] $end
$var wire 1 y! maestro_adress_i [17] $end
$var wire 1 z! maestro_adress_i [16] $end
$var wire 1 {! maestro_adress_i [15] $end
$var wire 1 |! maestro_adress_i [14] $end
$var wire 1 }! maestro_adress_i [13] $end
$var wire 1 ~! maestro_adress_i [12] $end
$var wire 1 !" maestro_adress_i [11] $end
$var wire 1 "" maestro_adress_i [10] $end
$var wire 1 #" maestro_adress_i [9] $end
$var wire 1 $" maestro_adress_i [8] $end
$var wire 1 %" maestro_adress_i [7] $end
$var wire 1 &" maestro_adress_i [6] $end
$var wire 1 '" maestro_adress_i [5] $end
$var wire 1 (" maestro_adress_i [4] $end
$var wire 1 )" maestro_adress_i [3] $end
$var wire 1 *" maestro_adress_i [2] $end
$var wire 1 +" maestro_adress_i [1] $end
$var wire 1 ," maestro_adress_i [0] $end
$var wire 1 -" maestro_data_i [31] $end
$var wire 1 ." maestro_data_i [30] $end
$var wire 1 /" maestro_data_i [29] $end
$var wire 1 0" maestro_data_i [28] $end
$var wire 1 1" maestro_data_i [27] $end
$var wire 1 2" maestro_data_i [26] $end
$var wire 1 3" maestro_data_i [25] $end
$var wire 1 4" maestro_data_i [24] $end
$var wire 1 5" maestro_data_i [23] $end
$var wire 1 6" maestro_data_i [22] $end
$var wire 1 7" maestro_data_i [21] $end
$var wire 1 8" maestro_data_i [20] $end
$var wire 1 9" maestro_data_i [19] $end
$var wire 1 :" maestro_data_i [18] $end
$var wire 1 ;" maestro_data_i [17] $end
$var wire 1 <" maestro_data_i [16] $end
$var wire 1 =" maestro_data_i [15] $end
$var wire 1 >" maestro_data_i [14] $end
$var wire 1 ?" maestro_data_i [13] $end
$var wire 1 @" maestro_data_i [12] $end
$var wire 1 A" maestro_data_i [11] $end
$var wire 1 B" maestro_data_i [10] $end
$var wire 1 C" maestro_data_i [9] $end
$var wire 1 D" maestro_data_i [8] $end
$var wire 1 E" maestro_data_i [7] $end
$var wire 1 F" maestro_data_i [6] $end
$var wire 1 G" maestro_data_i [5] $end
$var wire 1 H" maestro_data_i [4] $end
$var wire 1 I" maestro_data_i [3] $end
$var wire 1 J" maestro_data_i [2] $end
$var wire 1 K" maestro_data_i [1] $end
$var wire 1 L" maestro_data_i [0] $end
$var wire 1 M" maestro_req_i $end
$var reg 1 N" ack $end
$var reg 32 O" address [31:0] $end
$var reg 1 P" arbiter $end
$var reg 32 Q" data [31:0] $end
$var reg 1 R" fsm_ack_o $end
$var reg 1 S" fsm_valid_o $end
$var reg 1 T" maestro_ack_o $end
$var reg 1 U" maestro_valid_o $end
$var reg 1 V" ready $end
$var reg 1 W" req $end
$var reg 1 X" valid $end
$upscope $end
$upscope $end

$scope module seq $end
$var reg 1 Y" clk $end
$var reg 1 Z" rst $end
$upscope $end

$scope task axi_read $end
$var reg 32 [" address [31:0] $end
$var reg 32 \" data [31:0] $end
$var integer 32 ]" port_index $end
$upscope $end

$scope task axi_write $end
$var reg 32 ^" address [31:0] $end
$var reg 32 _" data [31:0] $end
$var integer 32 `" port_index $end
$upscope $end

$scope task reset $end
$upscope $end

$scope begin axi_slave $end
$upscope $end

$scope module axi_slave[0] $end
$var parameter 32 a" AXI_ADDR_WIDTH $end
$var parameter 32 b" AXI_DATA_WIDTH $end
$var parameter 32 c" AXI_STRB_WIDTH $end
$var reg 32 d" ar_addr [31:0] $end
$var reg 3 e" ar_prot [2:0] $end
$var reg 1 f" ar_ready $end
$var reg 1 g" ar_valid $end
$var reg 32 h" aw_addr [31:0] $end
$var reg 3 i" aw_prot [2:0] $end
$var reg 1 j" aw_ready $end
$var reg 1 k" aw_valid $end
$var reg 1 l" b_ready $end
$var reg 2 m" b_resp [1:0] $end
$var reg 1 n" b_valid $end
$var reg 32 o" r_data [31:0] $end
$var reg 1 p" r_ready $end
$var reg 2 q" r_resp [1:0] $end
$var reg 1 r" r_valid $end
$var reg 32 s" w_data [31:0] $end
$var reg 1 t" w_ready $end
$var reg 4 u" w_strb [3:0] $end
$var reg 1 v" w_valid $end
$upscope $end

$scope module axi_slave[1] $end
$var parameter 32 w" AXI_ADDR_WIDTH $end
$var parameter 32 x" AXI_DATA_WIDTH $end
$var parameter 32 y" AXI_STRB_WIDTH $end
$var reg 32 z" ar_addr [31:0] $end
$var reg 3 {" ar_prot [2:0] $end
$var reg 1 |" ar_ready $end
$var reg 1 }" ar_valid $end
$var reg 32 ~" aw_addr [31:0] $end
$var reg 3 !# aw_prot [2:0] $end
$var reg 1 "# aw_ready $end
$var reg 1 ## aw_valid $end
$var reg 1 $# b_ready $end
$var reg 2 %# b_resp [1:0] $end
$var reg 1 &# b_valid $end
$var reg 32 '# r_data [31:0] $end
$var reg 1 (# r_ready $end
$var reg 2 )# r_resp [1:0] $end
$var reg 1 *# r_valid $end
$var reg 32 +# w_data [31:0] $end
$var reg 1 ,# w_ready $end
$var reg 4 -# w_strb [3:0] $end
$var reg 1 .# w_valid $end
$upscope $end
$upscope $end

$scope begin axi_pkg $end
$var parameter 3 /# ATOP_ADD $end
$var parameter 6 0# ATOP_ATOMICCMP $end
$var parameter 2 1# ATOP_ATOMICLOAD $end
$var parameter 2 2# ATOP_ATOMICSTORE $end
$var parameter 6 3# ATOP_ATOMICSWAP $end
$var parameter 1 4# ATOP_BIG_END $end
$var parameter 3 5# ATOP_CLR $end
$var parameter 3 6# ATOP_EOR $end
$var parameter 1 7# ATOP_LITTLE_END $end
$var parameter 2 8# ATOP_NONE $end
$var parameter 32 9# ATOP_R_RESP $end
$var parameter 3 :# ATOP_SET $end
$var parameter 3 ;# ATOP_SMAX $end
$var parameter 3 <# ATOP_SMIN $end
$var parameter 3 =# ATOP_UMAX $end
$var parameter 3 ># ATOP_UMIN $end
$var parameter 2 ?# BURST_FIXED $end
$var parameter 2 @# BURST_INCR $end
$var parameter 2 A# BURST_WRAP $end
$var parameter 4 B# CACHE_BUFFERABLE $end
$var parameter 4 C# CACHE_MODIFIABLE $end
$var parameter 4 D# CACHE_RD_ALLOC $end
$var parameter 4 E# CACHE_WR_ALLOC $end
$var parameter 10 F# DemuxAr $end
$var parameter 10 G# DemuxAw $end
$var parameter 10 H# DemuxB $end
$var parameter 10 I# DemuxR $end
$var parameter 10 J# DemuxW $end
$var parameter 10 K# MuxAr $end
$var parameter 10 L# MuxAw $end
$var parameter 10 M# MuxB $end
$var parameter 10 N# MuxR $end
$var parameter 10 O# MuxW $end
$var parameter 2 P# RESP_DECERR $end
$var parameter 2 Q# RESP_EXOKAY $end
$var parameter 2 R# RESP_OKAY $end
$var parameter 2 S# RESP_SLVERR $end

$scope function aligned_addr $end
$upscope $end

$scope function beat_addr $end
$upscope $end

$scope function beat_lower_byte $end
$upscope $end

$scope function beat_upper_byte $end
$upscope $end

$scope function bufferable $end
$upscope $end

$scope function get_arcache $end
$upscope $end

$scope function get_awcache $end
$upscope $end

$scope function modifiable $end
$upscope $end

$scope function num_bytes $end
$upscope $end

$scope function resp_precedence $end
$upscope $end

$scope function wrap_boundary $end
$upscope $end
$upscope $end
$enddefinitions $end
#0
$dumpvars
0j!
0i!
0h!
0g!
0f!
0e!
0d!
0c!
0b!
0a!
0`!
0_!
0^!
0]!
0\!
0[!
0Z!
0Y!
0X!
0W!
0V!
0U!
0T!
0S!
0R!
0Q!
0P!
0O!
0N!
0M!
0L!
0K!
0J!
0I!
0H!
0G!
0F!
0E!
0D!
0C!
0B!
0A!
0@!
0?!
0>!
0=!
0<!
0;!
0:!
09!
08!
07!
06!
05!
04!
03!
02!
01!
00!
0/!
0.!
0-!
0,!
0+!
0*!
0M"
0L"
0K"
0J"
0I"
0H"
0G"
0F"
0E"
0D"
0C"
0B"
0A"
0@"
0?"
0>"
0="
0<"
0;"
0:"
09"
08"
07"
06"
05"
04"
03"
02"
01"
00"
0/"
0."
0-"
0,"
0+"
0*"
0)"
0("
0'"
0&"
0%"
0$"
0#"
0""
0!"
0~!
0}!
0|!
0{!
0z!
0y!
0x!
0w!
0v!
0u!
0t!
0s!
0r!
0q!
0p!
0o!
0n!
0m!
0l!
0k!
x&!
x%!
x$!
x#!
x"!
x!!
x~
x}
x|
x{
xz
xy
xx
xw
xv
xu
xt
xs
xr
xq
xp
xo
xn
xm
xl
xk
xj
xi
xh
xg
xf
xe
xd
b1010 !
1"
bx #
bx $
bx %
0&
bx ["
bx \"
b0 ]"
bx ^"
bx _"
b0 `"
b0 /#
b110001 0#
b10 1#
b1 2#
b110000 3#
14#
b1 5#
b10 6#
07#
b0 8#
b101 9#
b11 :#
b100 ;#
b101 <#
b110 =#
b111 >#
b0 ?#
b1 @#
b10 A#
b1 B#
b10 C#
b100 D#
b1000 E#
b1000000 F#
b1000000000 G#
b10000000 H#
b100000 I#
b100000000 J#
b10 K#
b10000 L#
b100 M#
b1 N#
b1000 O#
b11 P#
b1 Q#
b0 R#
b10 S#
b100000 '
b100000 (
b100 )
bx *
bx +
x,
x-
bx .
bx /
x0
x1
x2
bx 3
x4
bx 5
x6
bx 7
x8
bx 9
x:
bx ;
x<
b10000 =
x>
bx ?
b0 @
xA
xB
0C
1D
xE
b0 F
1G
b0 H
bx I
xJ
b0 K
b0 L
0M
0N
xO
b0 P
b0 Q
0R
0S
b0 T
0U
xV
b0 W
bx X
0Y
1Z
0[
b0 \
bx ]
bx ^
0_
b0 `
b0 a
b0 b
b0 c
1Y"
1Z"
b100000 a"
b100000 b"
b100 c"
bx d"
bx e"
0f"
xg"
bx h"
bx i"
0j"
xk"
xl"
bx m"
0n"
bx o"
xp"
bx q"
0r"
bx s"
0t"
bx u"
xv"
b100000 w"
b100000 x"
b100 y"
bx z"
bx {"
x|"
x}"
bx ~"
bx !#
x"#
x##
x$#
bx %#
x&#
bx '#
x(#
bx )#
x*#
bx +#
x,#
bx -#
x.#
b0 '!
x(!
0)!
xN"
bx O"
xP"
bx Q"
xR"
0S"
xT"
0U"
0V"
xW"
0X"
$end
#5
0"
0Y"
0D
#10
1"
1Y"
1D
1,
08
10
1:
04
1(!
1A
#15
0"
0Y"
0D
#20
1"
1Y"
1D
#25
0"
0Y"
0D
#30
1"
1Y"
1D
#35
0"
0Y"
0D
#40
1"
1Y"
1D
#45
0"
0Y"
0D
#50
1"
1Y"
1D
#55
0"
0Y"
0D
#60
1"
1Y"
1D
#65
0"
0Y"
0D
#70
1"
1Y"
1D
#75
0"
0Y"
0D
#80
1"
1Y"
1D
#85
0"
0Y"
0D
#90
1"
1Y"
1D
#95
0"
0Y"
0D
#100
1"
1Y"
1D
#105
0"
0Y"
0D
#110
1"
1Y"
1D
#115
0"
0Y"
0D
#120
1"
1Y"
1D
#125
0"
0Y"
0D
#130
1"
1Y"
1D
#135
0"
0Y"
0D
#140
1"
1Y"
1D
#145
0"
0Y"
0D
#150
1"
1Y"
1D
#155
0"
0Y"
0D
#160
1"
1Y"
1D
#165
0"
0Y"
0D
#170
1"
1Y"
1D
#175
0"
0Y"
0D
#180
1"
1Y"
1D
#185
0"
0Y"
0D
#190
1"
1Y"
1D
#195
0"
0Y"
0D
#200
1"
1Y"
1D
#205
0"
0Y"
0D
#210
1"
1Y"
1D
#215
0"
0Y"
0D
#220
1"
1Y"
1D
#225
0"
0Y"
0D
#230
1"
1Y"
1D
#235
0"
0Y"
0D
#240
1"
1Y"
1D
#245
0"
0Y"
0D
#250
1"
1Y"
1D
#255
0"
0Y"
0D
#260
1"
1Y"
1D
#265
0"
0Y"
0D
#270
1"
1Y"
1D
#275
0"
0Y"
0D
#280
1"
1Y"
1D
#285
0"
0Y"
0D
#290
1"
1Y"
1D
#295
0"
0Y"
0D
#300
1&
1"
1Y"
1D
0Z"
1[
0B
0-
01
0<
0N"
0T"
0R"
0&!
0J
0O
#305
0"
0Y"
0D
#310
1"
1Y"
1D
0W"
0P"
#315
0"
0Y"
0D
#320
1"
1Y"
1D
#325
0"
0Y"
0D
#330
1"
1Y"
1D
#335
0"
0Y"
0D
#340
1"
1Y"
1D
#345
0"
0Y"
0D
#350
1"
1Y"
1D
#355
0"
0Y"
0D
#360
1"
1Y"
1D
#365
0"
0Y"
0D
#370
1"
1Y"
1D
#375
0"
0Y"
0D
#380
1"
1Y"
1D
#385
0"
0Y"
0D
#390
1"
1Y"
1D
#395
0"
0Y"
0D
#400
1"
1Y"
1D
#405
0"
0Y"
0D
#410
1"
1Y"
1D
#415
0"
0Y"
0D
#420
1"
1Y"
1D
#425
0"
0Y"
0D
#430
1"
1Y"
1D
#435
0"
0Y"
0D
#440
1"
1Y"
1D
#445
0"
0Y"
0D
#450
1"
1Y"
1D
#455
0"
0Y"
0D
#460
1"
1Y"
1D
#465
0"
0Y"
0D
#470
1"
1Y"
1D
#475
0"
0Y"
0D
#480
1"
1Y"
1D
#485
0"
0Y"
0D
#490
1"
1Y"
1D
#495
0"
0Y"
0D
#500
1"
1Y"
1D
#505
0"
0Y"
0D
#510
1"
1Y"
1D
#515
0"
0Y"
0D
#520
1"
1Y"
1D
#525
0"
0Y"
0D
#530
1"
1Y"
1D
#535
0"
0Y"
0D
#540
1"
1Y"
1D
#545
0"
0Y"
0D
#550
1"
1Y"
1D
#555
0"
0Y"
0D
#560
1"
1Y"
1D
#565
0"
0Y"
0D
#570
1"
1Y"
1D
#575
0"
0Y"
0D
#580
1"
1Y"
1D
#585
0"
0Y"
0D
#590
1"
1Y"
1D
#595
0"
0Y"
0D
#600
b101000 ^"
b111110100 _"
1l"
b101000 h"
b111110100 s"
1k"
1v"
1"
1Y"
1D
1_
1j"
1t"
b1010 ]
b111110100 ^
0Z
#605
0"
0Y"
0D
#610
0k"
0v"
1"
1Y"
1D
0j"
0t"
b0 m"
1n"
0_
1Z
0G
#615
0"
0Y"
0D
#620
0l"
1"
1Y"
1D
0n"
#625
0"
0Y"
0D
#630
b10010001101000101011001111000 #
b0 ^"
b10010001101000101011001111000 _"
1l"
b0 h"
b10010001101000101011001111000 s"
1k"
1v"
1"
1Y"
1D
1_
1j"
1t"
b0 ]
b10010001101000101011001111000 ^
0Z
#635
0"
0Y"
0D
#640
0k"
0v"
1"
1Y"
1D
0j"
0t"
1V
1n"
0_
1Z
#645
0"
0Y"
0D
#650
0l"
1"
1Y"
1D
0n"
b1 c
#655
0"
0Y"
0D
#660
1"
1Y"
1D
0V
b1 F
b1 b
1U
#665
0"
0Y"
0D
#670
1"
1Y"
1D
b1 \
b11 Q
1R
b10 F
1L"
1K"
1M"
#675
0"
0Y"
0D
#680
1"
1Y"
1D
b11 F
b0 O"
b11 Q"
1W"
1P"
#685
0"
0Y"
0D
#690
1"
1Y"
1D
b100 F
b0 .
b11 9
11
12
1N"
1T"
1O
#695
0"
0Y"
0D
#700
1"
1Y"
1D
14
b1 T
0R
b101 F
01
0N"
0T"
0M"
0O
#705
0"
0Y"
0D
#710
1"
1Y"
1D
04
b110 F
b1 P
1R
0W"
0P"
11
1N"
1R"
1,"
1M"
1J
#715
0"
0Y"
0D
#720
1"
1Y"
1D
14
b111 F
b1 O"
1W"
1P"
01
0N"
0R"
0J
#725
0"
0Y"
0D
#730
1"
1Y"
1D
04
b1000 F
b1 .
11
1N"
1T"
1O
#735
0"
0Y"
0D
#740
1"
1Y"
1D
14
b10 T
0R
b1001 F
01
0N"
0T"
0M"
0O
#745
0"
0Y"
0D
#750
1"
1Y"
1D
04
b1010 F
0U
b10 P
1R
0W"
0P"
11
1N"
1R"
0,"
1+"
1M"
1J
#755
0"
0Y"
0D
#760
1"
1Y"
1D
14
0R
b0 T
b1011 F
b10 O"
1W"
1P"
01
0N"
0R"
0M"
0J
#765
0"
0Y"
0D
#770
1"
1Y"
1D
04
b1100 F
0W"
0P"
b10 .
11
1N"
1R"
1J
#775
0"
0Y"
0D
#780
1"
1Y"
1D
14
b1101 F
01
0N"
0R"
0J
#785
0"
0Y"
0D
#790
1"
1Y"
1D
04
b1110 F
02
#795
0"
0Y"
0D
#800
1"
1Y"
1D
b1111 F
#805
0"
0Y"
0D
#810
1"
1Y"
1D
b10000 F
#815
0"
0Y"
0D
#820
1"
1Y"
1D
b10001 F
#825
0"
0Y"
0D
#830
1"
1Y"
1D
b10010 F
#835
0"
0Y"
0D
#840
1"
1Y"
1D
b10011 F
#845
0"
0Y"
0D
#850
1"
1Y"
1D
b10100 F
#855
0"
0Y"
0D
#860
1"
1Y"
1D
b10101 F
#865
0"
0Y"
0D
#870
1"
1Y"
1D
b10110 F
#875
0"
0Y"
0D
#880
1"
1Y"
1D
b10111 F
#885
0"
0Y"
0D
#890
1"
1Y"
1D
b11000 F
#895
0"
0Y"
0D
#900
1"
1Y"
1D
b11001 F
#905
0"
0Y"
0D
#910
1"
1Y"
1D
b11010 F
#915
0"
0Y"
0D
#920
1"
1Y"
1D
b11011 F
#925
0"
0Y"
0D
#930
1"
1Y"
1D
b11100 F
#935
0"
0Y"
0D
#940
1"
1Y"
1D
b11101 F
#945
0"
0Y"
0D
#950
1"
1Y"
1D
b11110 F
#955
0"
0Y"
0D
#960
1"
1Y"
1D
b11111 F
#965
0"
0Y"
0D
#970
1"
1Y"
1D
b100000 F
#975
0"
0Y"
0D
#980
1"
1Y"
1D
b100001 F
#985
0"
0Y"
0D
#990
1"
1Y"
1D
b100010 F
#995
0"
0Y"
0D
#1000
1"
1Y"
1D
b100011 F
#1005
0"
0Y"
0D
#1010
1"
1Y"
1D
b100100 F
#1015
0"
0Y"
0D
#1020
1"
1Y"
1D
b100101 F
#1025
0"
0Y"
0D
#1030
1"
1Y"
1D
b100110 F
#1035
0"
0Y"
0D
#1040
1"
1Y"
1D
b100111 F
#1045
0"
0Y"
0D
#1050
1"
1Y"
1D
b101000 F
#1055
0"
0Y"
0D
#1060
1"
1Y"
1D
b101001 F
#1065
0"
0Y"
0D
#1070
1"
1Y"
1D
b101010 F
#1075
0"
0Y"
0D
#1080
1"
1Y"
1D
b101011 F
#1085
0"
0Y"
0D
#1090
1"
1Y"
1D
b101100 F
#1095
0"
0Y"
0D
#1100
1"
1Y"
1D
b101101 F
#1105
0"
0Y"
0D
#1110
1"
1Y"
1D
b101110 F
#1115
0"
0Y"
0D
#1120
1"
1Y"
1D
b101111 F
#1125
0"
0Y"
0D
#1130
1"
1Y"
1D
b110000 F
#1135
0"
0Y"
0D
#1140
1"
1Y"
1D
b110001 F
#1145
0"
0Y"
0D
#1150
1"
1Y"
1D
b110010 F
#1155
0"
0Y"
0D
#1160
1"
1Y"
1D
b110011 F
#1165
0"
0Y"
0D
#1170
1"
1Y"
1D
b110100 F
#1175
0"
0Y"
0D
#1180
1"
1Y"
1D
b110101 F
#1185
0"
0Y"
0D
#1190
1"
1Y"
1D
b110110 F
#1195
0"
0Y"
0D
#1200
1"
1Y"
1D
b110111 F
#1205
0"
0Y"
0D
#1210
1"
1Y"
1D
b111000 F
#1215
0"
0Y"
0D
#1220
1"
1Y"
1D
b111001 F
#1225
0"
0Y"
0D
#1230
1"
1Y"
1D
b111010 F
#1235
0"
0Y"
0D
#1240
1"
1Y"
1D
b111011 F
#1245
0"
0Y"
0D
#1250
1"
1Y"
1D
b111100 F
#1255
0"
0Y"
0D
#1260
1"
1Y"
1D
b111101 F
#1265
0"
0Y"
0D
#1270
1"
1Y"
1D
b111110 F
#1275
0"
0Y"
0D
#1280
1"
1Y"
1D
b111111 F
#1285
0"
0Y"
0D
#1290
1"
1Y"
1D
b1000000 F
#1295
0"
0Y"
0D
#1300
1"
1Y"
1D
b1000001 F
#1305
0"
0Y"
0D
#1310
1"
1Y"
1D
b1000010 F
#1315
0"
0Y"
0D
#1320
1"
1Y"
1D
b1000011 F
#1325
0"
0Y"
0D
#1330
1"
1Y"
1D
b1000100 F
#1335
0"
0Y"
0D
#1340
1"
1Y"
1D
b1000101 F
#1345
0"
0Y"
0D
#1350
1"
1Y"
1D
b1000110 F
#1355
0"
0Y"
0D
#1360
1"
1Y"
1D
b1000111 F
#1365
0"
0Y"
0D
#1370
1"
1Y"
1D
b1001000 F
#1375
0"
0Y"
0D
#1380
1"
1Y"
1D
b1001001 F
#1385
0"
0Y"
0D
#1390
1"
1Y"
1D
b1001010 F
#1395
0"
0Y"
0D
#1400
1"
1Y"
1D
b1001011 F
#1405
0"
0Y"
0D
#1410
1"
1Y"
1D
b1001100 F
#1415
0"
0Y"
0D
#1420
1"
1Y"
1D
b1001101 F
#1425
0"
0Y"
0D
#1430
1"
1Y"
1D
b1001110 F
#1435
0"
0Y"
0D
#1440
1"
1Y"
1D
b1001111 F
#1445
0"
0Y"
0D
#1450
1"
1Y"
1D
b1010000 F
#1455
0"
0Y"
0D
#1460
1"
1Y"
1D
b1010001 F
#1465
0"
0Y"
0D
#1470
1"
1Y"
1D
b1010010 F
#1475
0"
0Y"
0D
#1480
1"
1Y"
1D
b1010011 F
#1485
0"
0Y"
0D
#1490
1"
1Y"
1D
b1010100 F
#1495
0"
0Y"
0D
#1500
1"
1Y"
1D
b1010101 F
#1505
0"
0Y"
0D
#1510
1"
1Y"
1D
b1010110 F
#1515
0"
0Y"
0D
#1520
1"
1Y"
1D
b1010111 F
#1525
0"
0Y"
0D
#1530
1"
1Y"
1D
b1011000 F
#1535
0"
0Y"
0D
#1540
1"
1Y"
1D
b1011001 F
#1545
0"
0Y"
0D
#1550
1"
1Y"
1D
b1011010 F
#1555
0"
0Y"
0D
#1560
1"
1Y"
1D
b1011011 F
#1565
0"
0Y"
0D
#1570
1"
1Y"
1D
b1011100 F
#1575
0"
0Y"
0D
#1580
1"
1Y"
1D
b1011101 F
#1585
0"
0Y"
0D
#1590
1"
1Y"
1D
b1011110 F
#1595
0"
0Y"
0D
#1600
1"
1Y"
1D
b1011111 F
#1605
0"
0Y"
0D
#1610
1"
1Y"
1D
b1100000 F
#1615
0"
0Y"
0D
#1620
1"
1Y"
1D
b1100001 F
#1625
0"
0Y"
0D
#1630
1"
1Y"
1D
b1100010 F
#1635
0"
0Y"
0D
#1640
1"
1Y"
1D
b1100011 F
#1645
0"
0Y"
0D
#1650
1"
1Y"
1D
b1100100 F
#1655
0"
0Y"
0D
#1660
1"
1Y"
1D
b1100101 F
#1665
0"
0Y"
0D
#1670
1"
1Y"
1D
b1100110 F
#1675
0"
0Y"
0D
#1680
1"
1Y"
1D
b1100111 F
#1685
0"
0Y"
0D
